module gitlab.com/vlaborie/remarkable-sync

go 1.18

require (
	github.com/bmaupin/go-epub v1.0.1
	github.com/mitchellh/go-homedir v1.1.0
	github.com/spf13/cobra v1.6.1
	github.com/spf13/viper v1.15.0
	miniflux.app v0.0.0-20230203040707-b338c9b3c252
)

require (
	github.com/fsnotify/fsnotify v1.6.0 // indirect
	github.com/gabriel-vasile/mimetype v1.4.1 // indirect
	github.com/gofrs/uuid v4.4.0+incompatible // indirect
	github.com/hashicorp/hcl v1.0.0 // indirect
	github.com/inconshreveable/mousetrap v1.1.0 // indirect
	github.com/magiconair/properties v1.8.7 // indirect
	github.com/mitchellh/mapstructure v1.5.0 // indirect
	github.com/pelletier/go-toml/v2 v2.0.6 // indirect
	github.com/spf13/afero v1.9.3 // indirect
	github.com/spf13/cast v1.5.0 // indirect
	github.com/spf13/jwalterweatherman v1.1.0 // indirect
	github.com/spf13/pflag v1.0.5 // indirect
	github.com/subosito/gotenv v1.4.2 // indirect
	github.com/vincent-petithory/dataurl v1.0.0 // indirect
	golang.org/x/net v0.5.0 // indirect
	golang.org/x/sys v0.4.0 // indirect
	golang.org/x/text v0.6.0 // indirect
	gopkg.in/ini.v1 v1.67.0 // indirect
	gopkg.in/yaml.v3 v3.0.1 // indirect
)
